\relax 
\citation{van2002look}
\citation{de2006paths}
\citation{thompson2006flow}
\citation{NDN-TR1}
\citation{afanasyev2014nfd}
\citation{zhang2014named}
\citation{afanasyev2014nfd}
\citation{zhang2014named}
\citation{afanasyev2014nfd}
\@writefile{toc}{\contentsline {section}{\numberline {I}Introduction}{1}\protected@file@percent }
\newlabel{sect:intro}{{I}{1}}
\@writefile{toc}{\contentsline {section}{\numberline {II}Related work}{1}\protected@file@percent }
\@writefile{toc}{\contentsline {section}{\numberline {III}NDN Host Model}{1}\protected@file@percent }
\newlabel{sect:back}{{III}{1}}
\@writefile{lof}{\contentsline {figure}{\numberline {1}{\ignorespaces NDN's basic host model.}}{2}\protected@file@percent }
\newlabel{fig:host}{{1}{2}}
\@writefile{toc}{\contentsline {section}{\numberline {IV}NDN host multihoming}{2}\protected@file@percent }
\newlabel{sect:multihoming}{{IV}{2}}
\@writefile{toc}{\contentsline {subsection}{\numberline {\unhbox \voidb@x \hbox {IV-A}}Relation between NDN and Contiguous Layers}{2}\protected@file@percent }
\newlabel{sect:ndn:realtion}{{\unhbox \voidb@x \hbox {IV-A}}{2}}
\@writefile{toc}{\contentsline {subsection}{\numberline {\unhbox \voidb@x \hbox {IV-B}}Data-centric Mac}{2}\protected@file@percent }
\@writefile{toc}{\contentsline {subsection}{\numberline {\unhbox \voidb@x \hbox {IV-C}}Associations between Names and Faces}{2}\protected@file@percent }
\newlabel{sect:name:face}{{\unhbox \voidb@x \hbox {IV-C}}{2}}
\@writefile{lof}{\contentsline {figure}{\numberline {2}{\ignorespaces A multihoming example.}}{3}\protected@file@percent }
\newlabel{fig:example}{{2}{3}}
\@writefile{toc}{\contentsline {subsection}{\numberline {\unhbox \voidb@x \hbox {IV-D}}Make and Refine Forwarding Decisions}{4}\protected@file@percent }
\newlabel{sect:forward:decision}{{\unhbox \voidb@x \hbox {IV-D}}{4}}
\@writefile{toc}{\contentsline {subsection}{\numberline {\unhbox \voidb@x \hbox {IV-E}}Handle Link Layer Changes}{4}\protected@file@percent }
\newlabel{sect:handle:change}{{\unhbox \voidb@x \hbox {IV-E}}{4}}
\@writefile{lof}{\contentsline {figure}{\numberline {3}{\ignorespaces An example of retrieving continuous data segments with a moving host.}}{4}\protected@file@percent }
\newlabel{fig:switch}{{3}{4}}
\bibstyle{IEEEtran}
\bibdata{ndn-multihoming}
\bibcite{van2002look}{1}
\bibcite{de2006paths}{2}
\bibcite{thompson2006flow}{3}
\bibcite{NDN-TR1}{4}
\bibcite{afanasyev2014nfd}{5}
\bibcite{zhang2014named}{6}
\@writefile{lof}{\contentsline {figure}{\numberline {4}{\ignorespaces Mulihoming in heterogeneous IoT}}{5}\protected@file@percent }
\newlabel{multihomingIoT}{{4}{5}}
\@writefile{toc}{\contentsline {subsection}{\numberline {\unhbox \voidb@x \hbox {IV-F}}Mulihoming in heterogeneous IoT}{5}\protected@file@percent }
\@writefile{toc}{\contentsline {subsection}{\numberline {\unhbox \voidb@x \hbox {IV-G}}Discussion}{5}\protected@file@percent }
\@writefile{toc}{\contentsline {section}{\numberline {V}Conclusion}{5}\protected@file@percent }
\newlabel{sect:conclusion}{{V}{5}}
\@writefile{toc}{\contentsline {section}{References}{5}\protected@file@percent }
